…
**(c)** Organizei o conjunto de dados na forma tidy com o seguinte
código

``` r
dados_co2 %>%                
  pivot_longer(
    !ano,              
    names_to = "mes",    
    values_to = "ppm"  
  )
```

    ## # A tibble: 468 x 3
    ##      ano mes     ppm
    ##    <dbl> <chr> <dbl>
    ##  1  1959 jan    315.
    ##  2  1959 fev    316.
    ##  3  1959 mar    316.
    ##  4  1959 abr    318.
    ##  5  1959 mai    318.
    ##  6  1959 jun    318 
    ##  7  1959 jul    316.
    ##  8  1959 ago    315.
    ##  9  1959 set    314.
    ## 10  1959 out    313.
    ## # ... with 458 more rows
…
